<?xml version="1.0" encoding="UTF-8"?>
<session version="1.0">
<refactoring accessors="true" comment="Delete element from project &apos;jdbcdemo1&apos;&#x0D;&#x0A;- Original project: &apos;jdbcdemo1&apos;&#x0D;&#x0A;- Original element: &apos;day1.demo1.java&apos;" description="Delete element" element1="/src&lt;day1{demo1.java" elements="1" flags="589830" id="org.eclipse.jdt.ui.delete" resources="0" stamp="1707198761418" subPackages="false" version="1.0"/>
</session>