INDEX VERSION 1.130+C:\Users\pavan\Desktop\fsd60_sql\jdbc\adv java\.metadata\.plugins\org.eclipse.jdt.core
4259073463.index
411227453.index
1029206435.index
895354549.index
1584987159.index
242176372.index
1110146176.index
1112385285.index
674573568.index
1653771779.index
2615998999.index
3712426015.index
2205283528.index
103378668.index
4146254081.index
2875135472.index
2176551046.index
3348520720.index
542153213.index
1675421595.index
3292456424.index
1946725198.index
1418381357.index
3644761064.index
618688721.index
2066830214.index
1011887880.index
1722881666.index
4188736881.index
3712306588.index
531717655.index
1956904976.index
3040837599.index
223307509.index
2885606711.index
2378653877.index
4135958314.index
4138326577.index
2507423472.index
3091582731.index
1957307468.index
1321184385.index
715351300.index
405659632.index
3138044454.index
109266610.index
1961815414.index
