127.0.0.1 - - [12/Feb/2024:21:08:36 +0530] "GET / HTTP/1.1" 404 751
0:0:0:0:0:0:0:1 - - [12/Feb/2024:21:08:37 +0530] "GET /StudentApp/Login.html HTTP/1.1" 200 594
0:0:0:0:0:0:0:1 - - [12/Feb/2024:21:08:53 +0530] "GET /StudentApp/Login.html HTTP/1.1" 200 531
0:0:0:0:0:0:0:1 - - [12/Feb/2024:21:09:25 +0530] "GET /StudentApp/Login.html HTTP/1.1" 304 -
0:0:0:0:0:0:0:1 - - [12/Feb/2024:21:09:56 +0530] "POST /StudentApp/Login HTTP/1.1" 200 238
0:0:0:0:0:0:0:1 - - [12/Feb/2024:21:10:03 +0530] "GET /StudentApp/Login.html HTTP/1.1" 304 -
0:0:0:0:0:0:0:1 - - [12/Feb/2024:21:10:05 +0530] "GET /StudentApp/Register.html HTTP/1.1" 200 1317
0:0:0:0:0:0:0:1 - - [12/Feb/2024:21:10:22 +0530] "GET /StudentApp/Register.html HTTP/1.1" 200 1251
0:0:0:0:0:0:0:1 - - [12/Feb/2024:21:10:22 +0530] "GET /StudentApp/Register.html HTTP/1.1" 304 -
0:0:0:0:0:0:0:1 - - [12/Feb/2024:21:11:05 +0530] "POST /StudentApp/Login HTTP/1.1" 200 238
0:0:0:0:0:0:0:1 - - [12/Feb/2024:21:11:08 +0530] "GET /StudentApp/StuHomePage HTTP/1.1" 200 239
0:0:0:0:0:0:0:1 - - [12/Feb/2024:21:11:10 +0530] "GET /StudentApp/Login.html HTTP/1.1" 304 -
0:0:0:0:0:0:0:1 - - [12/Feb/2024:21:11:16 +0530] "POST /StudentApp/Login HTTP/1.1" 200 653
0:0:0:0:0:0:0:1 - - [12/Feb/2024:21:11:25 +0530] "GET /StudentApp/Register.html HTTP/1.1" 304 -
0:0:0:0:0:0:0:1 - - [12/Feb/2024:21:11:35 +0530] "GET /StudentApp/Login.html HTTP/1.1" 304 -
