INDEX VERSION 1.3+C:\Users\pavan\Desktop\fsd60_sql\jdbc\adv java\.metadata\.plugins\org.eclipse.wst.jsdt.core\indexes
2985509411.index
1723634230.index
2951707924.index
3649191943.index
2740810271.index
242176372.index
3837281816.index
